{
      "graph" :[
        {
           "type" : 1,
           "ID" : -1,
           "x" : 100,
           "y" : 160,
           "angle":180,
           "connection" : 0
       },

        {
              "type" : 2,
              "ID" : 0,
              "x" : 350,
              "y" : 160,
              "key" : 0,
              "FAR" : [{"angle" : 90 , "frame":0},{"angle" : 90 , "frame":1}],
              "connection" :[4,1]
        },
        {
           "type" : 1,
           "ID" : 1,
           "x" : 500,
           "y" : 160,
           "angle":270,
           "connection" : 5
       },
       {
          "type" : 1,
          "ID" : 2,
          "x" : 600,
          "y" : 400,
          "angle":0,
          "connection" : 15
      },
      {
         "type" : 1,
         "ID" : 3,
         "x" : 100,
         "y" : 400,
         "angle":180,
         "connection" : 8
     },
      {
            "type" : 2,
            "ID" : 4,
            "x" : 350,
            "y" : 400,
            "key" : 0,
            "FAR" : [{"angle" : 180 , "frame":0},{"angle" : 0 , "frame":1}],
            "connection" :[3,7]
      },
      {
            "type" : 2,
            "ID" : 5,
            "x" : 500,
            "y" : 400,
            "key" : 0,
            "FAR" : [{"angle" : 270 , "frame":0},{"angle" : 0 , "frame":1}],
            "connection" :[2,6]
      },
      {
            "type" : 2,
            "ID" : 6,
            "x" : 500,
            "y" : 700,
            "key" : 0,
            "FAR" : [{"angle" : 270 , "frame":0},{"angle" : 0 , "frame":1}],
            "connection" :[14,13]
      },
      {
            "type" : 2,
            "ID" : 7,
            "x" :350,
            "y" : 900,
            "key" : 0,
            "FAR" : [{"angle" : 180 , "frame":0},{"angle" : 0 , "frame":1}],
            "connection" :[10,12]
      },
      {
            "type" : 2,
            "ID" : 8,
            "x" : 100,
            "y" : 600,
            "key" : 0,
            "FAR" : [{"angle" : 270 , "frame":0},{"angle" : 0 , "frame":1}],
            "connection" :[9,11]
      },
        {
            "type" : 3,
            "ID" : 9,
            "x" : 220,
            "y" : 600,
            "kode" : 0

        },
        {
            "type" : 3,
            "ID" : 10,
            "x" : 220,
            "y" : 900,
            "kode" : 1
        },
        {
            "type" : 3,
            "ID" : 11,
            "x" : 100,
            "y" : 1180,
            "kode" : 2
        },
        {
            "type" : 3,
            "ID" : 12,
            "x" : 350,
            "y" : 1180,
            "kode" : 3
        },
        {
            "type" : 3,
            "ID" : 13,
            "x" : 500,
            "y" : 900,
            "kode" : 4
        },
        {
            "type" : 3,
            "ID" : 14,
            "x" : 640,
            "y" : 700,
            "kode" : 5
        },
        {
            "type" : 3,
            "ID" : 15,
            "x" : 600,
            "y" : 200,
            "kode" : 6
        }
    ],

    "kode":[
          {"kode":"white",
          "tint":"0x4286f4"} ,
          {"kode":"black",
          "tint":"0xffffff"} ,
          {"kode":"bas",
          "tint":"0xf12380"} ,
          {"kode":"gitar",
          "tint":"0xf17130"},
          {"kode":"arum",
          "tint":"0xf10829"},
          {"kode":"latifa",
          "tint":"0x624783"},
          {"kode":"latifa",
          "tint":"0xf8f009"}
    ],

    "spawnManager" : {
        "maxTime":120,
        "repeatTime" : 3000,
        "succesSpawnRate" : 10,
        "failSpawnRate" : 2,
        "pos" : {"x":100 , "y":280},
        "timer" : null,
        "spawner" : null,
        "map" : null,
        "trainStartAngle" : 0
    },
    "nextLevel":"Graph8",
    "mapStatic" : [{"x": 553 ,"y":  965 ,"type":0}
,{"x": 438 ,"y":  1019 ,"type":0}
,{"x": 632 ,"y":  1038 ,"type":0},{"x": 538 ,"y":  1094 ,"type":1}
,{"x": 613 ,"y":  471 ,"type":1}
,{"x": 212 ,"y":  231 ,"type":1}
,{"x": 162 ,"y":  709 ,"type":1},{"x": 184 ,"y":  1003 ,"type":2}]

}
