{
      "graph" :[
        {
           "type" : 1,
           "ID" : 0,
           "x" : 200,
           "y" : 920,
           "angle":270,
           "connection" : 1
       },
        {
           "type" : 1,
           "ID" : 1,
           "x" : 200,
           "y" : 1180,
           "angle":90,
           "connection" : 3
       },
       {
          "type" : 1,
          "ID" : 2,
          "x" : 350,
          "y" : 800,
          "angle":270,
          "connection" : 25
      },
       {
          "type" : 1,
          "ID" : 25,
          "x" : 100,
          "y" : 800,
          "angle":90,
          "connection" : 8
      },

    {
          "type" : 2,
          "ID" : 3,
          "x" : 350,
          "y" : 1180,
          "key" : 0,
          "FAR" : [{"angle" : 180 , "frame":0},{"angle" : 90 , "frame":1}],
          "connection" :[2,4]
    },{
          "type" : 2,
          "ID" : 4,
          "x" : 500,
          "y" : 1180,
          "key" : 0,
          "FAR" : [{"angle" : 180 , "frame":0},{"angle" : 90 , "frame":1}],
          "connection" :[5,10]
    },
      {
            "type" : 2,
            "ID" : 5,
            "x" : 500,
            "y" : 800,
            "key" : 0,
            "FAR" : [{"angle" : 0 , "frame":0},{"angle" : 0 , "frame":1}],
            "connection" :[11,6]
      },
      {
            "type" : 2,
            "ID" : 6,
            "x" : 500,
            "y" : 600,
            "key" : 0,
            "FAR" : [{"angle" : 0 , "frame":0},{"angle" : 0 , "frame":1}],
            "connection" :[12,7]
      },
      {
            "type" : 2,
            "ID" : 7,
            "x" : 500,
            "y" : 400,
            "key" : 0,
            "FAR" : [{"angle" : 0 , "frame":0},{"angle" : 0 , "frame":1}],
            "connection" :[13,14]
      },
      {
            "type" : 2,
            "ID" : 8,
            "x" :100,
            "y" : 600,
            "key" : 0,
            "FAR" : [{"angle" : 0 , "frame":0},{"angle" : 0 , "frame":1}],
            "connection" :[16,9]
      },
      {
            "type" : 2,
            "ID" : 9,
            "x" : 100,
            "y" : 400,
            "key" : 0,
            "FAR" : [{"angle" : 0 , "frame":0},{"angle" : 0 , "frame":1}],
            "connection" :[15,17]
      },
      {
          "type" : 3,
          "ID" : 10,
          "x" : 680,
          "y" : 1180,
          "kode" : 0

      },
        {
            "type" : 3,
            "ID" : 11,
            "x" : 680,
            "y" : 800,
            "kode" : 1

        },
        {
            "type" : 3,
            "ID" : 12,
            "x" : 680,
            "y" : 600,
            "kode" : 2
        },
        {
            "type" : 3,
            "ID" : 13,
            "x" : 680,
            "y" : 400,
            "kode" : 3
        },
        {
            "type" : 3,
            "ID" : 14,
            "x" : 500,
            "y" : 250,
            "kode" : 4
        },
        {
            "type" : 3,
            "ID" : 15,
            "x" : 250,
            "y" : 400,
            "kode" : 5
        },
        {
            "type" : 3,
            "ID" : 16,
            "x" : 250,
            "y" : 600,
            "kode" : 6
        },
        {
            "type" : 3,
            "ID" : 17,
            "x" : 100,
            "y" : 250,
            "kode" : 7
        }
    ],

    "kode":[
          {"kode":"white",
          "tint":"0x4286f4"} ,
          {"kode":"black",
          "tint":"0xffffff"} ,
          {"kode":"bas",
          "tint":"0xf12380"} ,
          {"kode":"gitar",
          "tint":"0xf17130"},
          {"kode":"arum",
          "tint":"0xf10829"},
          {"kode":"latifa",
          "tint":"0x624783"},
          {"kode":"latifa",
          "tint":"0xf8f009"},
          {"kode":"diva",
          "tint":"0x424242"}
    ],

    "spawnManager" : {
        "maxTime":120,
        "repeatTime" : 3000,
        "succesSpawnRate" : 10,
        "failSpawnRate" : 2,
        "pos" : {"x":80 , "y":920},
        "timer" : null,
        "spawner" : null,
        "map" : null,
        "trainStartAngle" : 0
    },
    "nextLevel":"Graph9",
    "mapStatic" : [{"x": 227 ,"y":  75 ,"type":0}
,{"x": 271 ,"y":  212 ,"type":0}
,{"x": 319 ,"y":  115 ,"type":0}
,{"x": 37 ,"y":  1170 ,"type":0},{"x": 60 ,"y":  1100 ,"type":1}
,{"x": 626 ,"y":  202 ,"type":1},{"x": 588 ,"y":  925 ,"type":2}
,{"x": 350 ,"y":  609 ,"type":2}]

}
